* GENERATED BY CHARMM-GUI (http://www.charmm-gui.org) v3.5 on Nov, 20. 2021. JOBID=3740502160
* ORIENT THE MOLECULE ALONG THE Z-AXIS
*

DIMENS CHSIZE 5000000 MAXRES 3000000

! Read topology and parameter files
stream toppar.str

! Read PSF and Coordinates
open read unit 10 card name step1_pdbreader.psf
read psf  unit 10 card

open read unit 10 card name step1_pdbreader.crd
read coor unit 10 card

! Orient protein using PDB orientation.
! This option is suggested for oriented structure from http://opm.phar.umich.edu

! translate the protein to have Xave and Yave zero
coor stat
calc dx = -?xave
calc dy = -?yave
coor trans xdir @dx ydir @dy
coor stat

stream step2_area.str

open write card unit 10 name step2_orient.pdb
write coor pdb  unit 10 sele .not. segid PWAT end

open write card unit 10 name step2_orient.crd
write coor card unit 10 sele .not. segid PWAT end

stop
