    0.169872        0.0902776
    0.509617         0.480446
    0.849361          1.21246
     1.18911          2.85641
     1.52885          6.17661
     1.86859           13.233
     2.20834          26.9859
     2.54808           53.149
     2.88783          99.9894
     3.22757          183.089
     3.56732          313.773
     3.90706          458.542
      4.2468          564.185
     4.58655          613.589
     4.92629          630.743
     5.26604           632.09
     5.60578          621.069
     5.94553          600.262
     6.28527          591.822
     6.62502          606.086
     6.96476          629.705
      7.3045          654.204
     7.64425          678.171
     7.98399           678.33
     8.32374          614.775
     8.66348          485.826
     9.00323          347.791
     9.34297          238.648
     9.68272          161.993
     10.0225          105.598
     10.3622           65.896
     10.7019           39.921
     11.0417          23.2008
     11.3814          13.1963
     11.7212          7.20865
     12.0609          3.81523
     12.4007          1.97928
     12.7404         0.996459
     13.0802         0.535306
     13.4199         0.281115
     13.7596         0.113949
     14.0994        0.0233579
     14.4391       0.00441674
     14.7789      0.000295997
     15.1186                0
     15.4584                0
     15.7981                0
     16.1379                0
     16.4776      0.000143468
     16.8173       0.00607889
