   1 3.10143
   2 3.49366
   3 3.51981
   4 3.86452
   5 3.66395
   6 3.98709
   7 4.26246
   8 4.07926
   9 4.34878
  10 3.84281
  11 4.18755
  12 3.77597
  13 4.12759
  14 4.47331
  15 4.26254
  16 4.04101
  17 4.31908
  18 3.71197
  19 4.09553
  20 3.41044
  21 3.81523
  22 3.45884
  23 3.60895
  24 3.23963
  25 3.19074
  26 2.89905
  27 2.72126
  28 2.52848
  29 2.45603
  30 2.33251
  31 2.09159
  32 2.47879
  33 2.61286
  34 3.05543
  35 2.96391
  36 3.27232
  37 3.28944
  38 3.69163
  39 3.41071
  40 4.02766
  41 3.71304
  42 4.35212
  43 4.31697
  44 4.65807
  45 4.59574
  46 4.23671
  47 4.79636
  48  4.4473
  49 4.40045
  50 3.90372
  51 3.77519
  52 3.31553
  53 3.23375
  54 2.56838
  55 2.78218
  56 2.72415
  57 2.58788
  58 2.11659
  59 2.11356
  60 1.41958
  61 1.53756
  62 1.62555
  63 0.699536
  64 1.07555
  65 0.656924
  66 0.572178
  67 0.352875
  68 0.229236
  69 0.170496
  70 0.229661
  71 0.169287
  72 0.22956
  73 0.465431
  74 0.673211
  75 0.756152
  76 0.844311
  77 1.32761
  78 1.23529
  79 1.56039
  80 1.54495
  81 1.82629
  82 1.81786
  83 2.35435
  84 2.59248
  85 2.93054
  86 3.13298
  87 3.23075
  88 3.72383
  89 3.94366
  90 4.28819
  91 4.36853
  92 4.34883
  93 4.44447
  94 4.16074
  95 3.95222
  96 3.51411
  97 3.60827
  98 3.18735
  99 2.89148
 100 2.58288
 101 2.19935
 102 2.53706
 103 2.11304
 104 1.85448
 105 1.60854
 106 1.16859
 107 1.11743
 108 0.505524
 109  1.0666
 110 1.57699
 111 1.52826
 112  2.0652
 113 2.38959
 114 2.76443
 115 3.03641
 116 3.37518
 117  3.5097
 118 3.94878
 119 4.25776
 120 3.97891
 121 3.66217
 122 3.28851
 123 3.00226
 124 2.50015
 125 2.35626
 126 1.93998
 127 1.96296
 128 1.94513
 129 2.45713
 130 2.61747
 131  2.7684
 132 3.13025
 133 2.95674
 134 2.82059
 135 2.93678
 136 3.32992
 137 3.49933
 138  3.2375
 139 2.90639
 140 2.80064
 141 2.39257
 142 2.15555
 143 1.74466
 144 1.63916
 145 1.11132
 146 1.26657
 147 0.919014
 148 0.963235
 149 1.29499
 150 1.44026
 151 1.78519
 152 1.92421
 153 2.32323
 154 2.41745
 155  1.7693
 156 2.25583
 157 2.67064
 158 3.06762
 159 3.40025
 160 3.46961
 161 3.06233
 162 3.09379
 163 2.75414
 164 2.43323
 165  2.0546
 166  1.9316
 167 1.49578
 168 1.32465
 169 1.15473
 170 0.628664
 171 0.74296
 172 0.572316
 173 0.19277
 174 0.273359
 175 0.218643
 176 0.184949
 177 0.205623
 178 0.283216
 179 0.193623
 180 0.802743
 181 0.870371
 182 0.529922
 183 0.536161
 184 0.211691
 185 0.174255
 186 0.223844
 187 0.20812
 188  0.2886
 189 0.522205
 190 0.637399
 191 0.218461
 192 0.413583
 193 0.456093
 194 0.203828
 195 0.215569
 196 0.245573
 197 0.199093
 198 0.228561
 199 0.245858
 200 0.204416
 201 0.216344
 202 0.204775
 203 0.402953
 204 0.427042
 205 0.205728
 206 0.494373
 207  0.3236
 208 0.227539
 209 0.192167
 210 0.400447
 211 0.397434
 212 0.172203
 213 0.713922
 214 0.816541
 215 1.17064
 216 1.44973
 217 1.15196
 218  0.8912
 219 1.41137
 220 1.67842
 221 1.92944
 222 2.03338
 223 2.20384
 224 2.29676
 225 2.29405
 226 2.78142
 227 3.17517
 228 3.37747
 229 3.63312
 230 4.14082
 231 4.49158
 232 4.81833
 233 4.79752
 234 4.86057
 235 5.04181
 236 4.99553
 237 4.92951
 238 4.88158
 239 4.42959
 240 4.22326
 241 3.77185
 242 3.52537
 243 3.29194
 244 2.94595
 245 2.79006
 246 2.42364
 247 2.07928
 248 1.68008
 249 1.58892
 250 1.36857
 251 0.716682
 252 0.600265
 253 0.511623
 254 0.537325
 255 0.214367
 256 0.16847
 257 0.241224
 258 0.214781
 259 0.202499
 260 0.24684
 261 0.246272
 262 0.250042
 263 0.728074
 264 0.406892
 265 0.778907
 266 0.388834
 267 0.974073
 268 1.35281
 269 1.02792
 270 1.61195
 271 1.84573
 272 2.30187
 273    2.66
 274 2.95104
 275 3.20666
 276 3.51699
 277 3.68334
 278 3.64864
 279 4.48161
 280 4.18978
 281 4.63407
 282 4.18152
 283 4.88139
 284 4.80832
 285 4.42254
 286 4.47813
 287    4.07
 288 4.42727
 289 3.79165
 290 4.31515
 291  3.8808
 292 3.52142
 293 3.31393
 294 2.97153
 295 2.59473
 296 2.12434
 297 1.65425
 298 1.54759
 299 1.79133
 300 2.26126
 301 2.13457
