    1   0.1899
    2   0.2298
    3   0.1718
    4   0.0921
    5   0.1030
    6   0.0895
    7   0.0910
    8   0.0869
    9   0.1234
   10   0.1636
   11   0.1705
   12   0.1375
   13   0.1325
   14   0.1763
   15   0.1854
   16   0.1021
   17   0.0752
   18   0.0735
   19   0.0967
   20   0.1080
   21   0.0556
   22   0.0649
   23   0.0598
   24   0.1026
   25   0.0740
   26   0.0998
   27   0.0755
   28   0.1587
   29   0.1993
   30   0.0946
   31   0.1401
   32   0.0711
   33   0.0782
   34   0.0890
   35   0.0712
   36   0.0788
   37   0.0518
   38   0.0513
   39   0.0463
   40   0.0548
   41   0.0788
   42   0.0777
   43   0.0970
   44   0.1607
   45   0.1132
   46   0.0932
   47   0.1458
   48   0.1243
   49   0.0830
   50   0.0568
   51   0.0566
   52   0.0613
   53   0.0704
   54   0.0622
   55   0.0581
   56   0.0549
   57   0.0546
   58   0.0974
   59   0.0620
   60   0.0714
   61   0.0609
   62   0.0735
   63   0.0698
   64   0.1363
   65   0.1903
   66   0.1260
   67   0.2435
   68   0.2953
   69   0.3996
   70   0.2021
   71   0.1567
   72   0.1184
   73   0.0884
   74   0.0722
   75   0.1356
   76   0.0933
   77   0.1095
   78   0.0498
   79   0.0531
   80   0.0544
   81   0.1294
   82   0.0588
   83   0.0722
   84   0.0718
   85   0.0712
   86   0.0669
   87   0.0798
   88   0.0673
   89   0.1713
   90   0.1865
   91   0.1954
   92   0.2099
   93   0.1067
   94   0.0937
   95   0.1287
   96   0.0868
   97   0.1056
   98   0.0847
   99   0.1068
  100   0.0559
  101   0.0656
  102   0.1096
  103   0.1765
  104   0.2460
  105   0.2168
  106   0.2351
  107   0.1739
  108   0.1667
  109   0.1710
  110   0.0811
  111   0.1246
  112   0.1098
  113   0.0774
  114   0.0754
  115   0.0708
  116   0.0776
  117   0.1189
  118   0.3199
  119   0.1450
  120   0.1210
  121   0.1633
  122   0.1324
  123   0.1374
  124   0.1086
  125   0.1118
  126   0.1579
  127   0.0956
  128   0.1326
  129   0.2211
  130   0.3387
  131   0.4870
  132   0.5337
  133   0.6308
  134   0.3708
  135   0.2666
  136   0.2790
  137   0.1129
  138   0.0774
  139   0.0824
  140   0.0826
  141   0.0737
  142   0.0744
  143   0.0887
  144   0.0602
  145   0.1378
  146   0.0950
  147   0.1009
  148   0.0685
  149   0.0537
  150   0.2163
  151   0.0650
  152   0.0926
  153   0.1595
  154   0.2546
  155   0.4189
  156   0.4795
  157   0.3921
  158   0.2861
  159   0.2402
  160   0.1604
  161   0.1428
  162   0.0851
  163   0.0571
  164   0.0578
  165   0.0942
  166   0.0643
  167   0.1156
  168   0.0610
  169   0.1343
  170   0.1383
  171   0.0865
  172   0.1332
  173   0.1461
  174   0.2363
  175   0.1574
  176   0.2631
  177   0.0986
  178   0.1011
  179   0.0773
  180   0.0751
  181   0.0743
  182   0.1313
  183   0.1037
  184   0.1877
  185   0.1782
  186   0.1732
  187   0.1313
  188   0.1004
  189   0.0793
  190   0.0637
  191   0.0858
  192   0.0759
  193   0.0556
  194   0.0723
  195   0.0927
  196   0.1120
  197   0.1098
  198   0.1709
  199   0.1297
  200   0.2224
  201   0.1497
  202   0.1582
  203   0.0876
  204   0.0890
  205   0.1447
  206   0.0952
  207   0.0682
  208   0.0877
  209   0.1370
  210   0.0916
  211   0.2249
  212   0.1343
  213   0.0933
  214   0.0631
  215   0.0952
  216   0.0944
  217   0.0622
  218   0.0646
  219   0.0592
  220   0.1200
  221   0.0629
  222   0.0783
  223   0.0604
  224   0.0757
  225   0.0562
  226   0.0636
  227   0.0472
  228   0.0589
  229   0.0730
  230   0.0600
  231   0.0702
  232   0.1484
  233   0.1215
  234   0.1586
  235   0.1133
  236   0.0921
  237   0.1441
  238   0.1348
  239   0.0595
  240   0.1263
  241   0.0939
  242   0.0674
  243   0.0645
  244   0.0595
  245   0.0895
  246   0.0975
  247   0.0879
  248   0.1208
  249   0.1107
  250   0.0538
  251   0.1151
  252   0.0484
  253   0.0662
  254   0.0639
  255   0.1543
  256   0.0989
  257   0.1085
  258   0.1475
  259   0.1542
  260   0.1011
  261   0.0859
  262   0.1111
  263   0.0590
  264   0.1145
  265   0.0572
  266   0.1158
  267   0.1057
  268   0.1449
  269   0.1230
  270   0.1349
  271   0.1901
  272   0.0655
  273   0.0918
  274   0.0743
  275   0.0886
  276   0.0741
  277   0.1069
  278   0.0688
  279   0.0923
  280   0.0864
  281   0.0853
  282   0.0583
  283   0.1248
  284   0.0901
  285   0.0952
  286   0.1008
  287   0.0988
  288   0.1487
  289   0.0881
  290   0.0888
  291   0.1023
  292   0.0830
  293   0.1650
  294   0.0887
  295   0.1743
  296   0.1420
  297   0.2642
  298   0.3596
  299   0.5209
  300   0.7382
  301   0.8692
